﻿"Email Address","Phone","Gender"
"TERRAMIGGI7410***test@***testGMAIL.COM","3155643135","F"
"JESSIE.GAUGHAN***test@***testGMAIL.COM","0","U"
"ROBERTBROWNELLJR***test@***testGMAIL.COM","9414234500","U"
"RIVERVIEW422***test@***testLIVE.COM","9419629539","F"
"cagecarmen***test@***testgmail.com","8643250227","F"
"KKRATZ***test@***testCOJ.NET","9046998805","F"
"YPBM***test@***testAOL.COM","7345644075","M"
"CAROLYNDMT***test@***testGMAIL.COM","0","U"
"TERRITURPIN13***test@***testYAHOO.COM","0","U"
"KYLEJ199102***test@***testGMAIL.COM","0","U"
