﻿"CUSTOMER_EMAIL","Lcin","Constitution Code","Constitution","Mas Industry Code","Mas Industry Name","Team","Rm","Date Of Registration","Total Count Of Cheques","Total Amt Of Cheques","Rm1bankid","Rm Email"
"C301062015R00@test.com","C301062015R00","4","PRIVATE CORPORATION","40202","PHARMACIES & DRUG STORES","IBG4-PS-SME","EB-CB","7/28/2015 12:00:00 AM","0","0","SMEBANKING","SMEBANKING@DBS.COM"
"C346352016E00@test.com","C346352016E00","4","PRIVATE CORPORATION","40105","OTHER WHOLESALERS","IBG4-NS1-EBINTL","STACEYTHAM","12/21/2016 12:00:00 AM","0","0","STACEYTHAM","STACEYTHAM@1BANK.DBS.COM"
"C141192007M00@test.com","C141192007M00","4","PRIVATE CORPORATION","20902","NON-FERROUS METAL BASIC IND","IBG4-PS-SME","EB-CB","8/1/2007 12:00:00 AM","0","0","SMEBANKING","SMEBANKING@DBS.COM"
"C341982014N00@test.com","C341982014N00","4","PRIVATE CORPORATION","50206","COMMUNICATIONS","IBG4-PS-SME","EB-CB","11/15/2014 12:00:00 AM","0","0","SMEBANKING","SMEBANKING@DBS.COM"
"C002302012W00@test.com","C002302012W00","4","PRIVATE CORPORATION","30101","CONSTRUCTION","IBG4-SD-BIZDEV2","JENNIFERONGHL/EB-CB","1/3/2012 12:00:00 AM","1","3990","JENNIFERONGHL","JENNIFERONGHL@1BANK.DBS.COM"
"R53198389K00@test.com","R53198389K00","3","SOLE PROPRIETORSHIP","80304","THEATRICAL PRODUCERS & ENTERTAINMENT SVS","IBG4-PS-ENTREPRENEUR STARTUP","EB-CB","8/25/2011 12:00:00 AM","1","350","SMEBANKING","SMEBANKING@DBS.COM"
"R53363942E00@test.com","R53363942E00","3","SOLE PROPRIETORSHIP","30101","CONSTRUCTION","IBG4-PS-ENTREPRENEUR STARTUP","EB-CB","6/2/2017 12:00:00 AM","12","42459.95","SMEBANKING","SMEBANKING@DBS.COM"
"R52898634A00@test.com","R52898634A00","3","SOLE PROPRIETORSHIP","80505","OTHER BUSINESS SVS","COMMBKG-HEAD OFFICE","EB - COMMERCIAL BKG","7/31/1999 12:00:00 AM","0","0","SMEBANKING","SMEBANKING@DBS.COM"
"AT12SS0053A00@test.com","AT12SS0053A00","1","ASSOCIATION/CLUB/SOCIETY/CO-OPERATIVE","80107","SOCIAL & WELFARE SERVICES","IBG4-PS-CLUBSASSOC","EB-CB","3/28/2012 12:00:00 AM","0","0","SMEBANKING","SMEBANKING@DBS.COM"
